simulation/qsim/rgb_to_gray.msim.vcd
$comment
	File created using the following command:
		vcd file rgb_to_gray.msim.vcd -direction
$end
$date
	Thu Dec 01 23:34:22 2022
$end
$version
	ModelSim Version 10.1d
$end
$timescale
	1ps
$end
$scope module rgb_to_gray_vlg_vec_tst $end
$var reg 8 ! B [7:0] $end
$var reg 8 " G [7:0] $end
$var reg 8 # R [7:0] $end
$var wire 1 $ gray [7] $end
$var wire 1 % gray [6] $end
$var wire 1 & gray [5] $end
$var wire 1 ' gray [4] $end
$var wire 1 ( gray [3] $end
$var wire 1 ) gray [2] $end
$var wire 1 * gray [1] $end
$var wire 1 + gray [0] $end
$var wire 1 , sampler $end
$scope module i1 $end
$var wire 1 - gnd $end
$var wire 1 . vcc $end
$var wire 1 / unknown $end
$var tri1 1 0 devclrn $end
$var tri1 1 1 devpor $end
$var tri1 1 2 devoe $end
$var wire 1 3 Mult1|mult_core|padder|adder[0]|auto_generated|op_1~0_combout $end
$var wire 1 4 Mult1|mult_core|padder|adder[0]|auto_generated|op_1~2_combout $end
$var wire 1 5 Mult1|mult_core|padder|adder[0]|auto_generated|op_1~4_combout $end
$var wire 1 6 Mult1|mult_core|romout[0][2]~1_combout $end
$var wire 1 7 Mult1|mult_core|romout[0][3]~combout $end
$var wire 1 8 Mult1|mult_core|romout[1][1]~3_combout $end
$var wire 1 9 Mult0|mult_core|romout[0][5]~3_combout $end
$var wire 1 : Mult1|mult_core|romout[1][2]~5_combout $end
$var wire 1 ; Mult0|mult_core|romout[1][2]~combout $end
$var wire 1 < Mult2|mult_core|romout[0][6]~4_combout $end
$var wire 1 = Mult1|mult_core|romout[0][7]~8_combout $end
$var wire 1 > Mult1|mult_core|romout[0][1]~0_combout $end
$var wire 1 ? Add0~0_combout $end
$var wire 1 @ Add1~0_combout $end
$var wire 1 A Mult0|mult_core|romout[0][2]~0_combout $end
$var wire 1 B Add0~1 $end
$var wire 1 C Add0~2_combout $end
$var wire 1 D Mult2|mult_core|romout[0][2]~0_combout $end
$var wire 1 E Add1~1 $end
$var wire 1 F Add1~2_combout $end
$var wire 1 G Mult2|mult_core|romout[0][3]~1_combout $end
$var wire 1 H Mult0|mult_core|romout[0][3]~1_combout $end
$var wire 1 I Add0~3 $end
$var wire 1 J Add0~4_combout $end
$var wire 1 K Add1~3 $end
$var wire 1 L Add1~4_combout $end
$var wire 1 M Mult0|mult_core|romout[0][4]~2_combout $end
$var wire 1 N Add0~5 $end
$var wire 1 O Add0~6_combout $end
$var wire 1 P Mult2|mult_core|romout[0][4]~2_combout $end
$var wire 1 Q Add1~5 $end
$var wire 1 R Add1~6_combout $end
$var wire 1 S Mult2|mult_core|romout[0][5]~3_combout $end
$var wire 1 T Mult2|mult_core|padder|adder[0]|auto_generated|op_1~0_combout $end
$var wire 1 U Mult0|mult_core|padder|adder[0]|auto_generated|op_1~0_combout $end
$var wire 1 V Add0~7 $end
$var wire 1 W Add0~8_combout $end
$var wire 1 X Add1~7 $end
$var wire 1 Y Add1~8_combout $end
$var wire 1 Z Mult2|mult_core|romout[1][2]~combout $end
$var wire 1 [ Mult2|mult_core|padder|adder[0]|auto_generated|op_1~1 $end
$var wire 1 \ Mult2|mult_core|padder|adder[0]|auto_generated|op_1~2_combout $end
$var wire 1 ] Mult0|mult_core|romout[0][6]~4_combout $end
$var wire 1 ^ Mult0|mult_core|padder|adder[0]|auto_generated|op_1~1 $end
$var wire 1 _ Mult0|mult_core|padder|adder[0]|auto_generated|op_1~2_combout $end
$var wire 1 ` Add0~9 $end
$var wire 1 a Add0~10_combout $end
$var wire 1 b Add1~9 $end
$var wire 1 c Add1~10_combout $end
$var wire 1 d Mult0|mult_core|romout[0][7]~6_combout $end
$var wire 1 e Mult0|mult_core|romout[1][3]~5_combout $end
$var wire 1 f Mult0|mult_core|padder|adder[0]|auto_generated|op_1~3 $end
$var wire 1 g Mult0|mult_core|padder|adder[0]|auto_generated|op_1~4_combout $end
$var wire 1 h Mult1|mult_core|romout[1][3]~7_combout $end
$var wire 1 i Mult1|mult_core|romout[0][6]~6_combout $end
$var wire 1 j Mult1|mult_core|romout[0][5]~4_combout $end
$var wire 1 k Mult1|mult_core|romout[0][4]~2_combout $end
$var wire 1 l Mult1|mult_core|padder|adder[0]|auto_generated|op_1~1 $end
$var wire 1 m Mult1|mult_core|padder|adder[0]|auto_generated|op_1~3 $end
$var wire 1 n Mult1|mult_core|padder|adder[0]|auto_generated|op_1~5 $end
$var wire 1 o Mult1|mult_core|padder|adder[0]|auto_generated|op_1~6_combout $end
$var wire 1 p Add0~11 $end
$var wire 1 q Add0~12_combout $end
$var wire 1 r Mult2|mult_core|romout[1][3]~5_combout $end
$var wire 1 s Mult2|mult_core|padder|adder[0]|auto_generated|op_1~3 $end
$var wire 1 t Mult2|mult_core|padder|adder[0]|auto_generated|op_1~4_combout $end
$var wire 1 u Add1~11 $end
$var wire 1 v Add1~12_combout $end
$var wire 1 w G~combout [7] $end
$var wire 1 x G~combout [6] $end
$var wire 1 y G~combout [5] $end
$var wire 1 z G~combout [4] $end
$var wire 1 { G~combout [3] $end
$var wire 1 | G~combout [2] $end
$var wire 1 } G~combout [1] $end
$var wire 1 ~ G~combout [0] $end
$var wire 1 !! B~combout [7] $end
$var wire 1 "! B~combout [6] $end
$var wire 1 #! B~combout [5] $end
$var wire 1 $! B~combout [4] $end
$var wire 1 %! B~combout [3] $end
$var wire 1 &! B~combout [2] $end
$var wire 1 '! B~combout [1] $end
$var wire 1 (! B~combout [0] $end
$var wire 1 )! R~combout [7] $end
$var wire 1 *! R~combout [6] $end
$var wire 1 +! R~combout [5] $end
$var wire 1 ,! R~combout [4] $end
$var wire 1 -! R~combout [3] $end
$var wire 1 .! R~combout [2] $end
$var wire 1 /! R~combout [1] $end
$var wire 1 0! R~combout [0] $end
$upscope $end
$upscope $end
$enddefinitions $end
#0
$dumpvars
b11001011 !
b111001 "
b10111000 #
1+
0*
1)
1(
1'
0&
0%
1$
x,
0-
1.
x/
10
11
12
13
04
15
06
17
08
19
0:
0;
0<
1=
1>
1?
0@
0A
0B
0C
0D
1E
1F
0G
0H
1I
1J
1K
1L
1M
0N
0O
1P
0Q
1R
1S
1T
0U
0V
1W
1X
0Y
0Z
0[
0\
1]
1^
0_
0`
1a
1b
0c
0d
1e
0f
0g
1h
1i
0j
0k
0l
1m
0n
0o
1p
0q
1r
1s
0t
0u
1v
1~
0}
0|
1{
1z
1y
0x
0w
1(!
1'!
0&!
1%!
0$!
0#!
1"!
z!!
00!
0/!
0.!
1-!
1,!
1+!
0*!
z)!
$end
#5000
b1001011 !
b1011 !
b101011 !
b111011 !
b111111 !
b111101 !
b111100 !
b10111001 "
b10011001 "
b10011101 "
b10011100 "
b11111000 #
b11011000 #
b11001000 #
b11001100 #
b11001110 #
1/!
1.!
0,!
0+!
1*!
0~
1|
0y
1w
0(!
0'!
1&!
1$!
1#!
0"!
0,
1d
0M
1A
09
0^
1U
1j
0>
0=
07
16
18
0S
0P
1G
0E
1@
0r
1[
0T
0+
1g
1V
1O
0I
0U
1f
1_
1`
0W
0m
0?
1o
0J
0[
1T
0R
1Q
0L
0F
1\
0b
1Y
1*
0`
0X
1J
0g
0p
1n
05
0@
0Q
1L
0\
0'
0(
0)
1&
1p
1b
0Y
1Q
0L
0o
1X
1R
1u
1c
0*
1(
0u
0c
0X
0R
0b
1Y
0v
0&
0(
1'
1%
1v
1b
0Y
1u
1c
0%
0'
1&
0$
0u
0c
0v
1$
0&
1%
1v
0%
0$
1$
#10000
b11011100 "
b11001100 "
b11000100 "
b11001111 #
b10111100 !
b11111100 !
b11111101 !
b1000100 "
b1100100 "
b1100000 "
b1100001 "
b10001111 #
b10101111 #
b10111111 #
b10111011 #
b10111001 #
1(!
1"!
10!
0/!
0.!
1,!
1+!
0*!
1~
0|
0{
0z
1y
1x
0w
1,
1P
1D
1@
1<
1r
1M
1H
1?
19
0d
1U
1k
0i
1>
06
0h
03
1+
1R
1F
1\
1t
1N
0J
1E
0@
1^
0U
1g
1W
13
0n
15
1B
0?
1I
1C
1o
1*
1c
0v
0V
0Q
1L
0K
0f
0_
0W
1Y
0o
0p
0a
0I
0C
0E
1@
0N
1J
1'
1)
0*
1W
0R
1Q
0g
1p
1a
0Y
0c
1N
0J
1K
0O
1%
0$
1(
1&
1*
1Y
1c
1O
0Q
0'
0&
0%
1&
1%
#15000
b111001 #
b11011101 !
b11011111 !
b100001 "
b10100001 "
b10100000 "
b11001 #
0~
0x
1w
1'!
0#!
0+!
0,
0k
0j
0>
1h
1:
0P
0D
0<
1Z
1;
0+
03
1m
14
0B
1?
1o
1n
05
1X
1R
0F
1_
0O
0n
15
1`
0W
1I
1C
1E
0@
1q
0o
0Y
1'
0)
0R
1o
0p
0b
1Y
0N
1J
0K
1v
0q
0*
0&
0c
1V
1O
1Q
0v
0'
1&
1$
0`
1W
0X
0%
0$
0a
1b
#20000
b10100010 "
b10001 #
b11011011 !
b1011011 !
b1011010 !
b10000010 "
b10000110 "
b1010001 #
b1010101 #
b1010111 #
b1011000 !
b110 "
b111 "
b1110111 #
0(!
0'!
0&!
1/!
1.!
0-!
1+!
1*!
1~
1}
1|
0y
0w
1,
1S
1P
0G
0E
1@
0M
0H
0A
0e
0;
1j
1i
16
0h
0:
08
1+
0t
1[
0T
1R
0L
1K
1F
0O
0J
1g
0_
0o
1*
1v
0s
0\
0Y
0Q
0R
1p
1a
1'
0(
1)
1t
1X
1R
1q
1$
0&
0'
0b
1Y
1'
1u
1c
1&
0v
1%
0$
#25000
b10111 "
b1110110 #
b1100110 #
b1111000 !
b1111100 !
b11111100 !
b11111101 !
b10011 "
b1100010 #
b1100000 #
1(!
1&!
1#!
00!
0/!
0.!
0,!
0|
1z
0,
0S
1G
1D
1E
0@
1<
0Z
0]
0?
09
0^
1U
1;
1k
0j
0i
1=
17
06
18
13
0t
0[
1T
1L
0K
1f
1_
0E
1@
0U
1`
0W
1l
03
05
1o
1J
0C
1O
0*
1v
1s
1\
1Q
0g
0p
0a
1K
0`
1W
0m
04
0O
0q
0X
0R
1(
1*
1t
0L
1p
1a
1b
15
0W
0v
1$
0'
1v
1q
0u
0p
0a
0Y
0(
0$
0q
0c
1$
0&
0v
0%
0$
#30000
b11110101 !
b10110101 !
b1010011 "
b1101000 #
b1110011 "
b10110111 !
b1110010 "
b1100010 "
b1111000 #
b10010111 !
b10010011 !
b10011 !
b10010 !
b1100110 "
1-!
1,!
0~
1|
0z
1y
1x
0(!
1'!
0&!
0%!
0#!
0"!
1,
1]
1M
19
1U
0;
1j
1>
0=
07
0l
13
1S
0P
0@
0<
0r
1Z
0+
0V
1^
0U
1W
1?
0o
0J
1[
0T
1X
1R
0*
0f
0_
0b
1Y
1@
1q
0Q
1L
0s
0\
1'
1g
1p
1a
1u
1v
0R
0t
1&
1*
1(
1c
1$
0'
1%
#35000
b10 !
b1101110 "
b11111000 #
b11011000 #
b11011001 #
b11011011 #
b101110 "
b11010011 #
b1110 "
b0 !
b1111 "
b11111 "
b100000 !
10!
1/!
0-!
0+!
1~
1{
1z
0y
0x
0'!
0$!
1#!
0,
0]
0M
1H
1B
0?
1;
1i
0>
1=
17
16
1l
03
0S
0G
0D
1r
0[
1T
1+
1V
1N
0I
0@
1n
05
0B
1?
1o
14
0T
0L
0F
1s
1\
1b
0Y
1O
1J
0o
0a
1I
1C
1@
0q
0b
1Y
1t
0u
0*
0(
0)
0&
1R
1L
1q
1u
0J
1F
0v
1*
1&
0L
1'
1(
1)
0$
0(
#40000
b10010011 #
b10100000 !
b11011 "
b10110011 #
b10110010 #
b10110000 #
b111011 "
b10100010 !
b111010 "
b101010 "
0~
0|
0z
1y
1'!
00!
0/!
1+!
0*!
1,
1>
1:
0l
13
1S
1G
1D
0H
0?
09
1e
0;
0+
1?
15
04
0V
0O
0t
1T
1L
0K
0F
0N
1J
0@
0^
1U
0g
1f
1_
1@
0p
1`
0W
0R
1v
1b
0Y
1Q
1V
1O
0_
0q
1g
1(
0)
0*
0b
1Y
0u
0c
0X
0`
1W
0v
1*
0'
1$
0&
1u
1c
1v
1b
1p
1a
1&
0%
0$
0v
0u
1q
1%
1$
0$
#45000
b11100010 !
b10100000 #
b11110010 !
b100000 #
b101000 #
b11010010 !
b1101000 #
b1010010 !
b1001000 #
b1001010 #
b1010000 !
b101011 "
b111011 "
1~
1z
1/!
1-!
0,!
0+!
1*!
0'!
1$!
0#!
1"!
0,
0i
0>
0=
07
06
1h
0:
08
1l
03
1d
1H
1A
0U
0S
0G
0D
1[
0T
1+
0n
0?
0O
0g
0W
1t
0[
1T
0L
1K
1F
0s
0\
0Y
1o
0@
1X
1R
0q
1v
1s
1\
0Q
1L
0t
0c
0(
1)
0&
1q
0b
1Y
1t
1c
0R
0*
1'
1$
1(
0%
0c
1&
1%
0'
0%
#50000
b111001 "
b10111001 "
b1001110 #
b1011000 !
b1011100 !
b10110001 "
b10110101 "
b1001111 #
b1011111 #
b1001100 !
b1010111 #
b1010101 #
b10100101 "
1&!
1%!
0$!
10!
0/!
1.!
0-!
1,!
0}
1|
0{
0z
1w
1,
1G
0Z
0T
1]
0H
1?
0d
0e
1U
1;
1i
1>
1=
17
16
1:
18
0l
13
1Q
0L
0\
0Y
0f
1@
1W
1n
1B
0?
0o
0I
0C
1O
0X
1u
1c
1g
1Y
1o
1C
0@
0q
1N
0J
0F
0(
0&
1*
1b
0Y
1F
0V
0O
0Q
1L
1%
1&
0*
0)
0u
0c
1`
0W
1X
0&
1)
1(
0v
0p
0a
0b
0%
1q
1u
0$
#55000
b1001101 !
b10000101 "
b1101 !
b11010101 #
b101101 !
b101111 !
b101 "
b11010001 #
b1101 "
b1001 "
b11000001 #
b111111 !
b11001001 #
b11001011 #
1/!
0.!
1-!
0,!
0|
1{
0y
0w
1(!
1'!
1$!
1#!
0"!
0,
1d
0]
1M
1H
0A
1e
0U
0;
0k
0j
06
0h
0:
08
1@
0r
1T
1f
1O
1J
1I
0`
1W
03
1m
0o
05
0t
1Y
1*
0g
1R
1Q
0L
0J
1p
1b
0Y
0O
0n
15
0q
1v
1&
0Q
1L
1c
1o
1a
0v
1'
0(
0&
1$
0R
1q
0u
0c
1(
1%
0$
0'
0%
#60000
b1001001 "
b10001011 #
b10111111 !
b1001000 "
b10110111 !
b10110011 !
b10001010 #
b1011000 "
b11110011 !
b1010 #
b1010000 "
b10 #
0&!
0%!
1"!
00!
0-!
0*!
0~
0{
1z
1x
1,
0G
1r
1A
0B
1?
0d
0e
0i
0>
0=
07
1h
1:
18
13
0+
0L
1t
1E
0@
0?
0N
1J
14
1O
1v
0K
0F
0E
1@
0O
1L
1`
0W
1R
0(
0*
1Q
0L
1K
1F
0R
0p
0a
0b
1Y
1$
0)
1*
1(
1'
1R
0Q
1L
0q
1u
0(
1)
0'
1&
0R
1'
1(
0'
#65000
b1110000 "
b11110000 "
b110 #
b11110100 "
b11100011 !
b10110100 "
b1100011 !
b1101011 !
b10100100 "
b10000110 #
b10101100 "
1%!
0$!
1.!
1|
1{
0z
1y
0x
1w
0,
1S
1P
0r
1Z
0T
1]
0H
1j
1i
16
03
1T
1R
1\
0Y
1_
0J
0m
04
1n
05
0I
0C
1V
1O
1Y
1c
0L
15
0`
0o
1J
0F
0X
0R
1'
0&
1q
1L
1b
0Y
1&
1%
0(
0)
0'
0v
0u
0c
1(
0&
1v
0$
0%
1$
#70000
b10100110 #
b1001011 !
b1001001 !
b10100100 #
b10101101 "
b1001 !
b10101100 #
b101101 "
b101001 "
b10001001 !
b111001 "
b110001 "
1~
0|
0{
1z
0w
0'!
0#!
0"!
0/!
1-!
1+!
1,
1k
0i
1>
06
0:
08
13
0S
0P
1D
0Z
1d
0]
0M
1H
0A
19
1e
1;
1+
1l
03
0n
1?
1I
1m
14
0t
0T
1X
1R
1F
0\
1N
0J
1U
0m
04
1o
1E
0@
0N
1J
05
1`
0v
0b
1u
1c
0L
1'
1)
15
0`
1W
0q
0K
0F
0O
1L
0c
1v
0*
0$
1%
0(
1Y
0v
1Q
0L
0R
0)
1(
0%
1$
1R
1&
0$
0(
0'
1'
#75000
b110011 "
b10001000 !
b11101100 #
b10001100 !
b10011 "
b10011100 !
b10010100 !
b1101100 #
b10010110 !
b10010 "
b11010110 !
b1100100 #
b10010010 "
b10010110 "
b10000110 "
0-!
1*!
0(!
1'!
1&!
0%!
1$!
1"!
0~
1}
1|
0z
0y
1w
0,
0d
1M
0e
0E
1@
1r
1Z
1T
0l
13
0+
0V
1K
1F
1t
1\
1b
0Y
1m
14
1*
1`
0Q
1L
1v
0u
05
1)
0&
0R
0v
1(
1$
0'
0$
#80000
b1110100 #
b11000110 "
b11110110 !
b1110110 !
b11001110 "
b1110010 !
b11101110 "
b110010 !
b1101110 "
b1111110 "
0&!
1#!
0"!
1{
1z
1y
1x
0w
1,!
1,
1S
1G
0r
0Z
0k
0j
1i
1=
17
0h
1:
1l
03
1^
0U
0;
1[
0T
1Q
0L
0\
0l
13
1n
1N
0J
1V
1O
0W
1\
0b
0X
1u
1c
04
0V
0o
0Q
1L
0`
1W
0(
1b
1v
1q
1X
1R
1p
1a
1%
1(
0u
0v
0b
1Y
0q
1$
1'
0c
0$
1&
0%
#85000
b1110000 #
b1110010 #
b110011 !
b110010 #
b10110010 #
b10111010 #
b1111010 "
b110111 !
b11111010 "
b11101010 "
0|
0z
1w
1(!
1&!
1/!
0.!
1-!
0*!
0,
1k
1j
16
1h
0:
18
03
0S
1P
0D
1E
0@
1<
1d
0M
1A
09
1e
13
0m
0I
1o
0n
15
1V
0t
0[
1T
0X
0R
0s
0\
0^
1U
0*
0V
0O
1n
05
1J
1q
0o
0p
0a
1v
1s
1\
1b
1t
1u
1c
0_
0'
1`
0W
1X
1R
1o
1p
1Q
0L
0v
0u
0c
0t
1$
1%
1a
0b
0X
0R
1'
0(
0$
0%
1b
0Y
0'
1c
0&
1%
#90000
b10011010 #
b110101 !
b11101011 "
b10001010 #
b10101 !
b1010101 !
b10001110 #
b1101011 "
b1111011 "
1~
1z
0w
0'!
0#!
1"!
1.!
0,!
0+!
1,
0i
0>
0=
07
06
0h
1:
08
1l
03
1S
0P
1D
0<
1r
1Z
1]
0H
0e
0U
1+
0?
0N
1I
1C
1V
1O
1[
0T
1X
1R
0K
0F
1_
1g
0`
1W
0E
1@
0O
0J
1F
0W
0X
0R
0s
0\
0b
1Y
1L
0q
1'
0)
0F
1X
1R
0L
1t
1u
1v
1*
1)
0'
1&
1(
0Y
0)
1'
0(
1$
0&
#95000
b10001111 #
b1111001 "
b1000101 !
b1001101 !
b1110001 "
b1001100 !
b11001111 #
b1001000 !
b11101111 #
b1001010 !
b1110000 "
b11111111 #
b1101010 !
b101010 !
b11111011 #
b11110000 "
b11100000 "
0(!
1'!
0&!
1%!
0$!
1#!
0"!
0~
0}
0{
0z
1w
10!
0.!
1,!
1+!
1*!
0,
0S
1P
0@
1<
0[
1T
0k
0j
1h
0:
18
0l
13
0]
1M
1H
0A
1?
1U
0+
0t
0T
0X
0R
1Y
03
1m
14
0o
0n
15
0V
0_
1J
0C
1@
1W
0*
0v
1b
0Y
1V
1O
05
1`
1q
1o
1L
1K
1F
0'
1&
1*
0u
0c
0W
1R
1v
0q
0L
0$
0&
1(
1)
0b
1Y
0%
1'
1$
0(
1u
1c
1&
0v
1%
0$
#100000
b10101010 !
b11110011 #
b11100010 "
b10100010 !
b10100011 !
b10110011 #
b10100111 !
b10010011 #
b11100011 "
b10000111 !
b11000111 !
b1100011 "
1~
1}
0w
0-!
0+!
0*!
1(!
1&!
0%!
0#!
1"!
1,
1k
1=
17
0h
0d
0M
19
1e
1;
0D
1E
0@
0Z
1+
13
1N
0J
0O
1^
0U
1_
1s
1\
0*
0V
0Q
1L
0R
0f
0_
0`
1W
0p
0a
1t
0u
0c
1`
0W
1X
1R
0g
1p
1b
0Y
1q
1u
1c
1(
0'
0%
1a
0b
0u
0c
1'
0&
1%
1v
0%
1$
#105000
b1000011 "
b10011 #
b1000111 "
b10010 #
b11010111 !
b11010101 !
b10110 #
b1010101 !
b1000101 "
b1010100 !
b1010110 #
b1000100 "
b10100 !
b11000100 "
0(!
0'!
1$!
0"!
00!
1.!
1*!
0~
0}
1|
0y
1w
0,
0E
1@
0r
1Z
1T
1]
1M
0H
1A
0?
09
0e
0k
1i
16
1:
08
0+
0F
0t
0s
0\
1Y
1_
1O
0N
1J
0I
0@
0^
1U
1g
03
1n
04
1*
0v
1t
1u
1c
0p
0a
0X
0R
1V
1Q
0L
1N
0J
0_
0q
0o
0)
1&
0*
1v
0c
1b
0Y
0`
1W
1R
0V
0O
0Q
1L
1p
1a
0$
1%
0'
0(
0u
0a
1Y
1`
0W
1X
1q
1$
0%
0&
1'
1(
1u
1c
1a
0b
1&
0v
1%
0$
#110000
b10000100 "
b10010100 "
b11100 !
b1110110 #
b111100 !
b10110100 "
b10110000 "
b101100 !
b101110 !
b10101110 !
b10110010 "
b10101111 !
b11101111 !
b110010 "
1+!
1(!
1'!
1%!
0$!
1#!
1"!
1}
0|
1z
1y
0x
0w
1,
0;
0P
1@
0<
0T
1j
1>
0=
07
1h
0:
13
1f
1_
0R
1s
1\
0Y
14
1?
0N
1J
0n
15
1O
1*
0g
0p
0t
0u
0c
1W
1E
0@
0O
1Q
0L
1o
1R
0'
0&
0q
1Y
1F
0%
0*
0(
1'
1v
1&
1)
1$
#115000
b1110100 #
b111010 "
b1100100 #
b11101011 !
b11100100 #
b11100000 #
b10100000 #
b111011 "
b1111011 "
b11100011 !
b11000011 !
b1011011 "
b11000001 !
b1000001 !
b1011001 "
b11011001 "
0'!
0&!
0%!
0#!
1~
0}
1{
0y
1x
1w
0/!
0.!
0,!
0*!
0,
1P
0G
1D
1<
1r
0Z
0j
1=
17
06
0h
1:
18
0]
0M
0A
1e
0U
1;
1+
0X
0R
0Q
1L
0K
0F
1t
1N
0J
1I
1n
05
1V
1O
1g
0W
0v
0V
0O
0N
1J
0o
0a
0`
1W
1q
0'
1(
0)
1`
0W
1X
1R
1V
1O
1Q
0L
0q
1u
1c
1p
1a
1b
0Y
1v
0$
0p
0a
0b
0`
1W
0X
1q
0u
1'
0(
1%
0&
1$
0q
1u
1p
1a
1b
1q
0u
#120000
b10100001 #
b10000001 #
b1000000 !
b0 !
b1 #
b101 #
b1000101 #
b10011001 "
b1000 !
b101000 !
b10101000 !
b10011011 "
1}
0x
0(!
1%!
1#!
0"!
10!
1.!
0+!
1*!
1,
1k
1j
0i
0>
0=
07
1h
0:
1S
0D
0E
1@
0<
1Z
1]
1A
1B
0?
0;
1l
03
0m
04
0n
0B
1?
0J
0t
1T
1K
0I
0@
1*
14
0O
15
0W
1o
1I
1C
1@
0Q
0v
1Y
1J
0*
1W
1X
0p
0a
0Y
0q
0J
1F
1L
1*
0$
1&
1q
0c
1v
0L
0&
1)
1(
0v
0%
1$
0(
0$
#125000
b1000111 #
b1010111 #
b10111011 "
b10101010 !
b111011 "
b1010110 #
b1110110 #
b11101010 !
b1110010 #
b110010 #
b1111011 "
b11100010 !
b11000010 !
b1111001 "
1'!
0%!
0#!
1"!
0}
1y
1x
0w
00!
1/!
0.!
1,!
1+!
0*!
0,
0P
1G
1D
0Z
0k
0j
1i
1>
1=
17
0h
1:
08
0]
1M
1H
0?
1U
0R
1L
0K
0F
0\
0l
13
1m
1n
1?
1N
0_
1O
0@
1`
0W
1Q
0L
1u
1c
04
0V
05
0o
1@
1R
0b
1Y
0'
1(
0)
0*
0X
0R
1v
1p
1a
0q
0c
0(
1%
1*
1'
1&
1b
0Y
1q
1c
0v
0'
1$
0%
0u
0c
1v
0&
1%
0$
0v
0%
1$
0$
#130000
b111010 #
b1111101 "
b11010010 !
b1110101 "
b11010110 !
b1110100 "
b11010111 !
b10111010 #
b10111000 #
b10101000 #
b1010100 "
b11010101 !
b10101001 #
b10010101 !
b10101101 #
b10011101 !
b10111101 !
b1010110 "
1(!
0'!
1&!
1%!
1$!
1#!
0"!
0~
1}
1|
0{
0y
10!
0/!
1.!
1-!
0,!
1,
0S
1P
1E
0@
1<
0r
1[
0T
1k
1j
0i
0=
07
1h
18
0H
1B
0?
19
1d
0U
1;
0+
0[
1T
1R
1F
0s
0b
1Y
1l
03
0m
0n
15
0N
0I
0C
0E
1@
1U
0g
0`
1W
1_
0*
1s
1\
1b
1t
1u
1c
14
1V
1n
05
1o
0p
0a
1J
1K
1`
0W
0q
1'
1)
1&
1*
0t
0u
0c
1v
0o
0Y
1%
1q
0%
1$
0&
0v
0$
#135000
b111101 !
b10001101 #
b1010010 "
b101101 !
b1011010 "
b101001 !
b101000 !
b1101 #
b100000 !
b0 !
0|
1{
0+!
0(!
0&!
0%!
0$!
0#!
0,
1i
1=
17
16
0e
0;
0P
0G
0D
0@
0<
0T
15
1o
1N
0J
1C
1g
0_
0R
0Q
1L
0F
0\
0b
1Y
0*
0V
0O
0L
1F
1X
1R
1u
0'
1(
0)
1&
1W
0R
0Y
1v
0(
1)
1'
1Y
0'
0&
1$
1&
#140000
b11011010 "
b1001101 #
b1001111 #
b1011111 #
b10 !
b1011110 #
b1011010 #
b11011000 "
b10000010 !
b1111010 #
b11010000 "
b10000110 !
b11111010 #
1'!
1&!
00!
1/!
0.!
1,!
1+!
1*!
0}
0{
1w
1,
1D
0M
1H
0B
1?
09
1^
0U
0k
0j
0i
0>
0=
07
06
0h
0K
0F
1V
1O
1I
1@
0^
1U
1_
0W
0l
13
04
05
0?
1L
0`
1W
1R
0N
1J
0_
0Y
1m
14
0V
0O
0@
0)
1*
1p
1Y
1V
1O
1Q
0L
0n
15
1`
0R
1(
1'
0&
0*
0q
0W
0X
0o
0p
1&
0(
0'
0v
0$
#145000
b11000000 "
b11000001 "
b11000110 !
b11000111 !
b11001111 !
b1000001 "
b10111010 #
b10111000 #
b10101000 #
b10101100 #
b10001100 #
b11001011 !
0/!
1.!
0,!
0+!
0*!
1(!
0&!
1%!
1"!
1~
0z
0w
0,
0A
19
0U
1S
1P
0D
1@
1r
1k
1j
1>
1h
08
03
1+
0C
1U
0`
1W
1T
1R
1K
1F
13
1?
1o
0O
1*
0F
1`
0W
1p
1a
1b
0Q
1L
1O
1E
0@
1q
0R
1'
1)
0p
0a
0Y
0q
0u
1F
1v
0)
1(
0*
0'
1q
1u
1c
0&
1)
1$
1%
#150000
b1100001 "
b1001011 !
b1011 !
b11 !
b11001100 #
b11011100 #
b11011000 #
b11111000 #
0.!
1,!
1+!
1*!
0%!
0"!
1y
1,
0d
1]
1M
0H
1^
0U
0S
0P
0r
0h
0:
18
0g
0f
0V
0O
0J
0`
1W
0T
1X
1R
0o
05
0m
04
1g
0R
0L
1p
0b
1Y
15
1'
0c
1a
0'
0(
1&
1c
0%
1%
#155000
b11110000 #
b1100101 "
b10011 !
b110011 !
b110001 !
b1100111 "
b1101111 "
b1110000 #
b110000 !
b11101111 "
b11001111 "
b1110000 !
b1111000 !
b1110100 #
0(!
0'!
1%!
1$!
1#!
1"!
1}
1|
1{
0y
1w
1.!
0-!
0,
1S
1P
0E
1@
1r
1T
1i
0>
1=
17
16
1:
08
0]
1H
1[
0T
1R
0F
1b
0Y
1n
0?
1o
1N
1C
1m
14
1f
1_
1*
1\
0b
1Y
0u
0c
0o
0@
0q
1O
1F
05
1`
0W
0g
0p
0a
1'
0)
0&
1u
1c
1q
0X
0R
0Y
1&
0%
0*
1)
1Y
1%
0'
0&
1&
#160000
b1110110 #
b11111000 !
b11101000 !
b11001000 !
b11000111 "
b11110110 #
b11001001 !
b10001001 !
0{
1(!
0$!
0#!
0"!
1/!
1,
0k
0=
07
0S
0P
1D
1@
0r
0[
1T
1]
0H
1A
09
03
1o
0N
0T
1X
1R
0K
0F
0\
1b
0Y
0f
0_
0I
0C
0^
1U
1*
1V
0q
0b
1L
1g
1p
1a
1J
1K
1F
1f
1_
1W
1'
0)
0&
0W
0v
0g
0p
0a
1Y
1(
1)
0Y
0c
0$
1&
0&
0%
#165000
b10000111 "
b10000110 "
b10110110 #
b10010110 #
b10011110 #
b10000010 "
b10000000 "
b0 "
b10000001 !
b1000 "
b11110 #
0%!
1-!
0+!
0*!
0~
0}
0|
1{
0x
0w
0,
1P
1<
1d
0M
1e
1;
1k
0j
0i
1=
17
06
0:
0+
0X
0R
1\
0O
0f
0_
13
04
0n
0o
1N
0J
1I
1C
1Y
1c
1X
1R
1g
1p
1a
0V
0`
1W
1o
1q
0L
0N
1J
0K
0F
0'
0q
0u
0c
1`
0W
0a
1v
1V
1O
1Q
1&
1%
1'
0(
0)
1a
0Y
1u
1c
0`
1W
0X
0%
1$
0u
0c
0v
0a
1b
0&
1%
1v
0%
0$
1$
#170000
b10000101 !
b1110 #
b10000111 !
b101000 "
b1100 #
b111 !
b10111 !
b110111 !
b110110 !
b1110110 !
b100 #
b101100 "
b10101100 "
b10000100 #
1|
1y
1w
0/!
0-!
0,!
0(!
1'!
1&!
1$!
1#!
1"!
1,
0k
1j
1i
0=
07
16
1h
1:
18
0d
0]
1M
1H
0A
19
0e
0U
0;
0P
0@
0<
1r
1T
03
0m
1n
1f
0V
0O
1U
0W
0R
0\
1t
1Y
0*
1V
1O
15
0o
0g
1`
1X
1R
0Y
1u
1c
0v
0'
1&
0`
1W
0X
0R
0p
0b
1Y
1v
1'
0&
1%
0$
1p
1a
1b
1q
0c
0'
1&
1$
0q
0u
0v
0%
0$
